TOMCAT_6_0_0 	6022	466306
TOMCAT_6_0_1 	3161	472328
TOMCAT_6_0_2 	7339	475489
TOMCAT_6_0_3 	457	482828
TOMCAT_6_0_4 	4433	483285
TOMCAT_6_0_5 	2	487718
TOMCAT_6_0_6 	2092	487720
TOMCAT_6_0_7 	6742	489812
TOMCAT_6_0_8 	5506	496554
TOMCAT_6_0_9 	4915	502060
TOMCAT_6_0_10 	20359	506975
TOMCAT_6_0_11 	5176	527334
TOMCAT_6_0_12 	2926	532510
TOMCAT_6_0_13 	22406	535436
TOMCAT_6_0_14 	32707	557842
TOMCAT_6_0_15 	25552	590549
TOMCAT_6_0_16 	58219	616101
TOMCAT_6_0_17 	4281	674320
TOMCAT_6_0_18 	72535	678601
TOMCAT_6_0_19 	23454	751136
TOMCAT_6_0_20 	118407	774590
TOMCAT_6_0_21 	582	892997
TOMCAT_6_0_22 	5590	893579
TOMCAT_6_0_23 	1603	899169
TOMCAT_6_0_24 	14960	900772
TOMCAT_6_0_25 	5197	915732
TOMCAT_6_0_26 	33464	920929
TOMCAT_6_0_27 	4594	954393
TOMCAT_6_0_28 	6474	958987
TOMCAT_6_0_29 	91815	965461
TOMCAT_6_0_30 	5703	1057276
TOMCAT_6_0_31 	3603	1062979
TOMCAT_6_0_32 	91639	1066582
TOMCAT_6_0_33 	43812	1158221
TOMCAT_6_0_34 	5020	1202033
TOMCAT_6_0_35 	191637	1207053
TOMCAT_6_0_36 	78248	1398690
TOMCAT_6_0_37 	82295	1476938
TOMCAT_6_0_38Modified: 	2660	1559233
TOMCAT_6_0_39Modified: 	32981	1561893
TOMCAT_6_0_40Modified: 	951	1594874
TOMCAT_6_0_41Modified: 	32653	1595825
TOMCAT_6_0_42 	11113	1628478
TOMCAT_6_0_43Modified: 	38737	1639591
TOMCAT_6_0_44 	49655	1678328
TOMCAT_6_0_45
