

1	0	70	0	70	59	0	59	19	0	19	57	0	57	1	0	1	18	0	18	5	0	5	
2	0	70	0	70	59	0	59	19	0	19	57	0	57	1	0	1	18	0	18	5	0	5	
3	2	71	0	71	61	2	59	20	1	19	58	1	57	1	0	1	18	0	18	5	0	5	
4	0	71	0	71	61	0	61	20	0	20	58	0	58	1	0	1	18	0	18	5	0	5	
5	0	71	0	71	61	0	61	20	0	20	58	0	58	1	0	1	18	0	18	5	0	5	
6	0	71	0	71	61	0	61	20	0	20	58	0	58	1	0	1	18	0	18	5	0	5	
7	0	71	0	71	61	0	61	20	0	20	58	0	58	1	0	1	18	0	18	5	0	5	
8	2	71	1	70	84	0	84	20	0	20	19	1	18	1	0	1	19	1	18	5	0	5	
9	1	71	0	71	84	1	83	20	1	19	58	1	57	1	0	1	19	0	19	5	0	5	
10	2	71	0	71	84	0	84	20	0	20	58	2	56	1	0	1	19	0	19	5	0	5	
11	6	71	1	70	109	1	108	20	0	20	56	4	52	1	0	1	19	0	19	5	0	5	
12	2	71	0	71	109	0	109	19	0	19	55	2	53	1	0	1	20	0	20	5	0	5	
13	1	71	0	71	109	0	109	19	0	19	55	1	54	1	0	1	20	0	20	5	0	5	
14	11	69	2	67	109	5	104	18	1	17	55	7	48	1	0	1	22	0	22	5	0	5	
15	15	68	2	66	113	3	110	19	3	16	56	6	50	1	0	1	22	3	19	5	0	5	
16	15	68	3	65	113	1	112	19	1	18	56	11	45	1	0	1	22	0	22	5	1	4	
17	22	67	1	66	113	3	110	19	4	15	55	17	38	2	1	1	19	1	18	10	0	10	
18	4	67	0	67	113	0	113	19	1	18	55	3	52	2	0	2	19	0	19	5	0	5	
19	34	66	4	62	116	5	111	18	5	13	55	21	34	2	1	1	20	5	15	5	1	4	
20	12	66	0	66	115	1	114	18	1	17	55	10	45	2	0	2	66	0	66	5	1	4	
21	33	68	1	67	117	6	111	18	5	13	55	25	30	2	0	2	19	3	16	5	0	5	
22	1	68	0	68	117	0	117	18	0	18	55	1	54	2	0	2	19	0	19	5	0	5	
23	8	68	1	67	117	1	116	19	1	18	55	5	50	2	1	1	19	2	17	5	0	5	
24	0	68	0	68	117	0	117	19	0	19	55	0	55	2	0	2	19	0	19	5	0	5	
25	10	68	2	66	117	1	116	20	3	17	56	5	51	2	0	2	20	3	17	5	0	5	
26	8	68	1	67	117	1	116	20	0	20	57	6	51	3	2	1	20	0	20	5	0	5	
27	90	69	29	40	117	16	101	20	12	8	56	32	24	3	0	3	20	10	10	5	1	4	
28	8	69	2	67	117	0	117	20	1	19	56	5	51	3	0	3	20	2	18	5	0	5	
29	2	69	0	69	117	0	117	20	1	19	56	2	54	3	0	3	20	0	20	5	0	5	
30	32	68	1	67	117	3	114	20	5	15	56	24	32	3	1	2	21	6	15	5	0	5	
31	5	68	1	67	117	0	117	20	2	18	56	3	53	3	0	3	21	0	21	5	0	5	
32	8	68	0	68	117	0	117	20	2	18	56	8	48	3	0	3	21	2	19	5	0	5	
33	19	69	2	67	117	1	116	20	3	17	56	14	42	3	0	3	22	2	20	5	0	5	
34	15	69	1	68	117	3	114	20	1	19	55	11	44	3	0	3	22	1	21	5	0	5	
35	0	69	0	69	117	0	117	20	0	20	55	0	55	3	0	3	22	0	22	5	0	5	
36	23	70	2	68	117	2	115	21	4	17	56	18	38	3	0	3	22	1	21	5	1	4	
37	5	70	0	70	117	0	117	21	0	21	56	7	49	3	0	3	21	0	21	5	0	5	
38	11	70	0	70	117	2	115	21	1	20	54	10	44	3	1	2	21	0	21	5	0	5	
39	8	70	1	69	117	3	114	21	1	20	54	4	50	3	0	3	21	0	21	5	0	5	
40	96	70	29	41	117	20	97	21	9	12	54	37	17	3	0	3	21	9	12	5	2	3	
41	0	70	0	70	117	0	117	21	0	21	54	0	54	3	0	3	21	0	21	5	0	5	
42	2	70	0	70	117	0	117	21	0	21	54	2	52	3	0	3	21	0	21	5	0	5	
43	4	70	0	70	117	0	117	21	1	20	54	3	51	3	0	3	21	0	21	5	0	5	
44	13	70	4	66	117	2	115	21	1	20	54	7	47	3	1	2	21	1	20	5	0	5	
45	16	70	1	69	117	0	117	22	6	16	54	11	43	3	0	3	20	0	20	5	1	4	
VersionInverso	Class BS&Bug	dataclass	BUG(true)	BUG(false)	dataclumps	BUG(true)	BUG(false)	featureenvy	BUG(true)	BUG(false)	godclass	BUG(true)	BUG(false)	messagechains	BUG(true)	BUG(false)	scrizophrenicclass	BUG(true)	BUG(false)	traditionbreaker	BUG(true)	BUG(false)

dataclass	93	3340
dataclumps	79	4699
featureenvy	73	837
godclass	327	2200
messagechains	7	88
scrizophrenicclass	49	916
traditionbreaker	8	227

0	0	315	0	315	59	0	59	19	0	19	56	0	56	1	0	1	18	0	18	5	0	5	
1	0	70	0	70	59	0	59	19	0	19	57	0	57	1	0	1	18	0	18	5	0	5	
2	2	70	0	70	59	1	58	19	1	18	57	1	56	1	0	1	18	0	18	5	0	5	
3	0	71	0	71	61	0	61	20	0	20	58	0	58	1	0	1	18	0	18	5	0	5	
4	0	71	0	71	61	0	61	20	0	20	58	0	58	1	0	1	18	0	18	5	0	5	
5	0	71	0	71	61	0	61	20	0	20	58	0	58	1	0	1	18	0	18	5	0	5	
6	0	71	0	71	61	0	61	20	0	20	58	0	58	1	0	1	18	0	18	5	0	5	
7	2	71	1	70	61	0	61	20	0	20	58	1	57	1	0	1	18	1	17	5	0	5	
8	1	71	0	71	84	1	83	20	1	19	19	0	19	1	0	1	19	0	19	5	0	5	
9	2	71	0	71	84	0	84	20	0	20	58	2	56	1	0	1	19	0	19	5	0	5	
10	7	71	1	70	84	1	83	20	0	20	58	5	53	1	0	1	19	0	19	5	0	5	
11	2	71	0	71	109	0	109	20	0	20	56	2	54	1	0	1	19	0	19	5	0	5	
12	1	71	0	71	109	0	109	19	0	19	55	1	54	1	0	1	20	0	20	5	0	5	
13	11	71	2	69	109	5	104	19	1	18	55	7	48	1	0	1	20	0	20	5	0	5	
14	15	69	2	67	109	3	106	18	2	16	55	6	49	1	0	1	22	3	19	5	0	5	
15	15	68	3	65	113	1	112	19	1	18	56	11	45	1	0	1	22	0	22	5	1	4	
16	22	68	1	67	113	3	110	19	4	15	56	17	39	1	1	0	22	1	21	5	0	5	
17	4	67	0	67	113	0	113	19	1	18	55	3	52	2	0	2	19	0	19	10	0	10	
18	34	67	5	62	113	3	110	19	6	13	55	21	34	2	1	1	19	4	15	5	1	4	
19	13	66	0	66	116	2	114	18	1	17	55	10	45	2	0	2	20	0	20	5	1	4	
20	30	66	1	65	115	4	111	18	5	13	55	25	30	2	0	2	66	1	65	5	0	5	
21	1	68	0	68	117	0	117	18	0	18	55	1	54	2	0	2	19	0	19	5	0	5	
22	8	68	1	67	117	1	116	18	0	18	55	5	50	2	1	1	19	2	17	5	0	5	
23	0	68	0	68	117	0	117	19	0	19	55	0	55	2	0	2	19	0	19	5	0	5	
24	8	68	2	66	117	1	116	19	2	17	55	4	51	2	0	2	19	2	17	5	0	5	
25	6	68	1	67	117	1	116	20	0	20	56	5	51	2	1	1	20	0	20	5	0	5	
26	91	68	29	39	117	16	101	20	12	8	57	33	24	3	0	3	20	10	10	5	1	4	
27	8	69	2	67	117	0	117	20	1	19	56	5	51	3	0	3	20	2	18	5	0	5	
28	2	69	0	69	117	0	117	20	1	19	56	2	54	3	0	3	20	0	20	5	0	5	
29	33	69	2	67	117	3	114	20	5	15	56	24	32	3	1	2	20	6	14	5	0	5	
30	5	68	1	67	117	0	117	20	2	18	56	3	53	3	0	3	21	0	21	5	0	5	
31	8	68	0	68	117	0	117	20	2	18	56	8	48	3	0	3	21	2	19	5	0	5	
32	17	68	1	67	117	1	116	20	3	17	56	14	42	3	0	3	21	1	20	5	0	5	
33	15	69	1	68	117	3	114	20	1	19	56	11	45	3	0	3	22	1	21	5	0	5	
34	0	69	0	69	117	0	117	20	0	20	55	0	55	3	0	3	22	0	22	5	0	5	
35	22	69	2	67	117	2	115	20	3	17	55	17	38	3	0	3	22	1	21	5	1	4	
36	6	70	0	70	117	0	117	21	0	21	56	7	49	3	0	3	22	2	20	5	0	5	
37	13	70	0	70	117	2	115	21	1	20	56	12	44	3	1	2	21	0	21	5	0	5	
38	8	70	1	69	117	3	114	21	1	20	54	4	50	3	0	3	21	0	21	5	0	5	
39	96	70	29	41	117	20	97	21	9	12	54	37	17	3	0	3	21	9	12	5	2	3	
40	0	70	0	70	117	0	117	21	0	21	54	0	54	3	0	3	21	0	21	5	0	5	
41	2	70	0	70	117	0	117	21	0	21	54	2	52	3	0	3	21	0	21	5	0	5	
42	4	70	0	70	117	0	117	21	1	20	54	3	51	3	0	3	21	0	21	5	0	5	
43	13	70	4	66	117	2	115	21	1	20	54	7	47	3	1	2	21	1	20	5	0	5	
44	15	70	1	69	117	0	117	21	5	16	54	11	43	3	0	3	21	0	21	5	1	4	
45	0	70	0	70	117	0	117	22	0	22	54	0	54	3	0	3	20	0	20	5	0	5	
Version	Class BS&Bug	dataclass	BUG(true)	BUG(false)	dataclumps	BUG(true)	BUG(false)	featureenvy	BUG(true)	BUG(false)	godclass	BUG(true)	BUG(false)	messagechains	BUG(true)	BUG(false)	scrizophrenicclass	BUG(true)	BUG(false)	traditionbreaker	BUG(true)	BUG(false)
